{
    "project1":
    {
        "id":"project1",
        "name":"Slymes (2017)",
        "skills":"Unity/C#/Networking",
        "short":"Indie Steam Game",
        "description":"Small indie game which was published to Steam and developed by a studio I founded, WolfTech Games. This game is similar to agar.io where you grow by eating other slimes in multiplayer combat.",
        "images":[
            "/slymes/1.jpg"
        ],
        "link":"http://wolftech.games/games/slymes",
        "section":"gamedev"
    },
    "vwpartnerprogram":
    {
        "id":"vwpartnerprogram",
        "name":"VW Partner Program",
        "skills":"AEM/Java/JS/SpringBoot",
        "short":"Website for Volkswagens Partner Program",
        "description":"This was developed as a contract project. I did the development from the ground up based on a design that was sent to me. It uses AEM to manage the content and SpringBoot to handle the backend.",
        "images":["/vw/vwpartnerprogram.png"],
        "link":"https://vwpartnerprogram.com/",
        "section":"webdev"
    },
    "vwcorporatefleet":
    {
        "id":"vwcorporatefleet",
        "name":"VW Corporate Fleet",
        "skills":"AEM/Java/JS/SpringBoot",
        "short":"Website for Volkswagens Corporate Fleet",
        "description":"This was developed as a contract project. I did the development from the ground up based on a design that was sent to me. It uses AEM to manage the content and SpringBoot to handle the backend.",
        "images":["/vw/vwcorporatefleet.png"],
        "link":"https://vwcorporatefleet.com/",
        "section":"webdev"
    },
    "project2":
    {
        "id":"project2",
        "name":"Modigine (2019)",
        "skills":"Unity/C#",
        "short":"Modding Tool for End Users",
        "description":"This is an open source modding tool I worked on for Unity3D. It allows developers to easily add full modding support to their games and it's easy to extend it to fit your needs.",
        "images":["/modigine/14.png"],
        "link":"https://github.com/SebastianMaj/Modigine",
        "section":"gamedev"
    },
    "project3":
    {
        "id":"project3",
        "name":"2048 Cards (2019)",
        "skills":"Unity/C#",
        "short":"A mobile game I made for a freelance client.",
        "description":"This is a mobile game I made in Unity with C# and native support for Android. The project was made to fit a clients request.",
        "images":["/freelance/15.jpg"],
        "link":"https://www.dropbox.com/s/1kfnv5xwvknfzm3/card2048.apk?dl=1",
        "section":"gamedev"
    },
    "project4":
    {
        "id":"project4",
        "name":"Spacion (2018)",
        "skills":"Unity/C#/PHP/MySQL",
        "short":"Multiplayer Space Survival Game",
        "description":"A multiplayer space survival game made in Unity with C#. We used PHP and MySQL for the database system involved with requesting user information and server list information.",
        "images":["/spacion/02.jpg"],
        "link":"http://www.wolftech.games/games/spacion/info",
        "section":"gamedev"
    },
    "project5":
    {
        "id":"project5",
        "name":"Kim Q Portfolio (2021)",
        "skills":"HTML/CSS/JS/JQuery",
        "short":"Portfolio",
        "description":"Portfolio website built with HTML, CSS, JS, JQuery and I also made a management tool to allow ease of modifying the page and adding new art and changing the content of the page.",
        "images":["/kimq/01.png"],
        "link":"https://kimmilyqin.com",
        "section":"webdev"
    },
    "project6":
    {
        "id":"project6",
        "name":"Ghosti Inc. Website (2021)",
        "skills":"Gatsby/Html/CSS/JS/Jquery",
        "short":"Website made for a Software Development Studio.",
        "description":"This is the website I am working on for my Software Development Studio. It is being built on the Gatsby framework.",
        "images":["/ghosti/01.png"],
        "link":"https://ghostistudios.com",
        "section":"webdev"
    },
    "project7":
    {
        "id":"project7",
        "name":"Freelance Farmville (2018)",
        "skills":"Unity/C#/WebGL",
        "short":"Web Game demo made as a freelance project",
        "description":"This is a demo I made for a client as a freelance project. It is a farming web game built for WebGL.",
        "images":["/freelance/02.png"],
        "link":"https://sebastianmaj.com/games/farmville-freelance/",
        "section":"all"
    },
    "project8":
    {
        "id":"project8",
        "name":"Rally Game (2016)",
        "skills":"Unity/C#",
        "short":"Freelance Game made for Client",
        "description":"This game was made for a client. The game is a racing derby game where you have to be the last car standing by running into the other vehicles. The game features a selection of vehicles that you can choose from and a selection of maps.",
        "images":["/freelance/03.jpg"],
        "link":"https://www.dropbox.com/s/km9fa7qerv0yd7x/Freelance_Derby_Racing.apk?dl=1",
        "section":"gamdev"
    },
    "project9":
    {
        "id":"project9",
        "name":"Dungeon Clicker (2016)",
        "skills":"Unity/C#/Networking/NoSQL",
        "short":"Multiplayer Clicker Game",
        "description":"This is a multiplayer clicker game that I made. It was made in Unity and had a backend built on Parse NoSQL.",
        "images":["/dungeonclicker/08.png"],
        "link":"https://www.dropbox.com/s/9l2juvgsahcnogg/DungeonClickerNew.apk?dl=1",
        "section":"gamedev"
    },
    "project10":
    {
        "id":"project10",
        "name":"Brickbreaker (2016)",
        "skills":"Unity/C#/WebGL",
        "short":"Game Jam Game built for WebGL",
        "description":"This was a game jam project that had to be completed in 48 hours. I built it in Unity for WebGL.",
        "images":["/brickbreaker/16.png"],
        "link":"https://sebastianmaj.com/games/brickbreak_gdl_2016/",
        "section":"all"
    },
    "project11":
    {
        "id":"project11",
        "name":"Parallax Manager (2016)",
        "skills":"Corona/Lua",
        "short":"CoronaSDK Library",
        "description":"CoronaSDK Parllax Manager built for my High School co-op position at Red Piston Inc.",
        "images":["/redpiston/05.png"],
        "link":"https://github.com/SebastianMaj/Corona-ParallaxManager",
        "section":"gamedev"
    },
    "project12":
    {
        "id":"project12",
        "name":"Audio Manager (2016)",
        "skills":"Corona/Lua",
        "short":"CoronaSDK Library",
        "description":"CoronaSDK Audio Manager built for my High School co-op position at Red Piston Inc.",
        "images":["/redpiston/05.png"],
        "link":"https://github.com/SebastianMaj/Corona-Audio-Manager",
        "section":"gamedev"
    },
    "project13":
    {
        "id":"project13",
        "name":"Marshmallow Hero (2015)",
        "skills":"Unity/C#",
        "short":"Mobile Unity Game",
        "description":"This game is where you have to slingshot a marshmallow and see how far you can get. You have to avoid obstacles and collect boosts.",
        "images":["/brickbreaker/16.png"],
        "link":"https://www.dropbox.com/s/qq8359e9ktistw2/MarshHero(Proto).apk?dl=1",
        "section":"gamedev"
    },
    "project14":
    {
        "id":"project14",
        "name":"Rocket Game (2015)",
        "skills":"Unity/C#",
        "short":"Mobile Unity Game",
        "description":"This game was built for mobile and you have to tap the screen to add upward velocity to the rocket and make sure you make it through the obstacles.",
        "images":["/rocketgame.png"],
        "link":"https://www.dropbox.com/s/nnw1loel3zhpe7b/RocketGame.apk?dl=1",
        "section":"gamedev"
    },
    "project15":
    {
        "id":"project15",
        "name":"Ball Craft (2015)",
        "skills":"Unity/C#",
        "short":"Mobile Unity Game",
        "description":"Mobile Unity Game where you are a ball rolling on a road as obstacles appear in front of you and you must avoid them.",
        "images":["/ballgame.png"],
        "link":"https://www.dropbox.com/s/ibtcvggrf8badro/BallCraft.apk?dl=1",
        "section":"gamedev"
    },
    "project16":
    {
        "id":"project16",
        "name":"Cubic Dodge (2014)",
        "skills":"Unity/C#",
        "short":"Mobile Unity Game",
        "description":"Mobile Game where you are a cube that has to move left and right as you dodge falling objects. There are different gamemodes to play. The game was published on the google play store.",
        "images":["/cubicdodge.png"],
        "link":"https://www.dropbox.com/s/mmi4t92bwgzjw7u/CubicDodgeHalloween.apk?dl=1",
        "section":"gamedev"
    },
    "project17":
    {
        "id":"project17",
        "name":"Friend List (2014)",
        "skills":"TitaniumSDK/Java",
        "short":"Friend List built in TitaniumSDK",
        "description":"This project I made during my highschool co-op at Red Piston Inc. it is built in Titanium SDK with Java as a native project for Android.",
        "images":["/friendlist.png"],
        "link":"https://www.dropbox.com/s/sswhgxi6ws21x4g/FriendList.apk?dl=1",
        "section":"gamedev"
    },
    "project18":
    {
        "id":"project18",
        "name":"EDR (2011)",
        "skills":"Java",
        "short":"2D block building game in Java",
        "description":"This was the first game I ever made. It is a 2D block building game that is made in Java.",
        "images":["/EDR.png"],
        "link":"https://earthsdimensionalrift.webs.com",
        "section":"gamedev"
    }
}