[
    {
      "id": 0,
      "description": "Ghosti Inc. NFT",
      "external_url": "https://ghostistudios.com",
      "image": "https://i.imgur.com/whLdLJv.png",
      "name": "Ghosti Inc."
    }
  ]